…
To obtain historical data for cryptocurrencies, use the function `historical_data`


```r
historical <- historical_data(cryptocurrency = "BTC")

historical
```

```
## # A tibble: 1,855 x 8
##    coin    dia        Open.  High   Low Close..     Volume   Market.Cap
##    <chr>   <chr>      <dbl> <dbl> <dbl>   <dbl>      <dbl>        <dbl>
##  1 bitcoin 2018-05-26 7486. 7595. 7349.   7356. 4051540000 127682000000
##  2 bitcoin 2018-05-25 7592. 7659. 7393.   7480. 4867830000 129470000000
##  3 bitcoin 2018-05-24 7561. 7739. 7331.   7587. 6049220000 128925000000
##  4 bitcoin 2018-05-23 8037. 8055. 7508.   7558. 6491120000 137024000000
##  5 bitcoin 2018-05-22 8420. 8423. 8005.   8042. 5137010000 143534000000
##  6 bitcoin 2018-05-21 8522. 8558. 8365.   8419. 5154990000 145264000000
##  7 bitcoin 2018-05-20 8247. 8562. 8205.   8513. 5191060000 140556000000
##  8 bitcoin 2018-05-19 8256. 8372. 8183.   8247. 4712400000 140689000000
##  9 bitcoin 2018-05-18 8092. 8274. 7975.   8251. 5764190000 137881000000
## 10 bitcoin 2018-05-17 8370. 8446. 8054.   8094. 5862530000 142608000000
## # ... with 1,845 more rows
```
…
